<?xml version="1.0" standalone="no"?>
<!DOCTYPE svg PUBLIC "-//W3C//DTD SVG 20010904//EN"
 "http://www.w3.org/TR/2001/REC-SVG-20010904/DTD/svg10.dtd">
<svg version="1.0" xmlns="http://www.w3.org/2000/svg"
 width="1280.000000pt" height="1180.000000pt" viewBox="0 0 1280.000000 1180.000000"
 preserveAspectRatio="xMidYMid meet">
<metadata>
Created by potrace 1.15, written by Peter Selinger 2001-2017
</metadata>
<g transform="translate(0.000000,1180.000000) scale(0.100000,-0.100000)"
fill="#454545" stroke="none">
<path fill="#bdbcbc" d="M5955 11789 c-1862 -88 -3646 -714 -5073 -1783 -281 -210 -553 -441
-774 -656 l-108 -105 410 -630 c225 -346 414 -630 420 -630 6 0 61 54 123 121
367 396 793 735 1314 1045 199 119 645 342 863 432 850 351 1700 546 2675 613
303 20 1009 15 1295 -10 1471 -129 2763 -574 3818 -1314 291 -204 521 -399
786 -666 150 -151 200 -196 207 -185 4 8 206 293 449 634 l441 620 -98 94
c-981 939 -2267 1666 -3641 2061 -992 284 -2062 408 -3107 359z"/>
<path fill="#bdbcbc" d="M6020 8463 c-806 -47 -1635 -238 -2343 -539 -702 -298 -1319 -708
-1804 -1196 l-123 -123 431 -665 c237 -366 434 -668 438 -672 4 -5 38 30 75
77 584 736 1535 1285 2613 1509 363 75 642 105 1044 113 756 14 1426 -101
2099 -362 607 -236 1187 -614 1574 -1027 l92 -98 448 632 c247 348 450 638
451 643 2 6 -49 58 -113 117 -1001 916 -2370 1470 -3912 1584 -175 12 -798 17
-970 7z"/>
<path d="M6015 5094 c-22 -2 -89 -9 -150 -14 -597 -59 -1202 -253 -1725 -555
-227 -130 -508 -330 -673 -476 l-37 -34 360 -555 c199 -305 365 -561 369 -569
7 -11 27 2 90 52 130 106 363 256 536 344 387 197 720 297 1180 354 167 21
571 16 759 -10 557 -75 1060 -272 1504 -588 58 -41 108 -71 112 -66 5 4 180
251 390 548 294 415 380 543 372 555 -15 25 -236 193 -371 283 -188 125 -268
172 -466 272 -456 232 -916 370 -1465 440 -118 16 -683 29 -785 19z"/>
<path d="M6100 2123 c-289 -45 -538 -189 -703 -406 -209 -273 -275 -618 -181
-945 166 -580 788 -907 1360 -716 256 86 479 275 603 513 98 189 136 372 119
588 -42 550 -513 979 -1068 972 -58 -1 -116 -3 -130 -6z"/>
</g>
</svg>
